module gitlab.com/nitpum/dns-sync

go 1.15

require (
	github.com/alecthomas/template v0.0.0-20190718012654-fb15b899a751 // indirect
	github.com/alecthomas/units v0.0.0-20190924025748-f65c72e2690d // indirect
	github.com/cloudflare/cloudflare-go v0.13.4
	github.com/rs/zerolog v1.20.0
	github.com/tidwall/gjson v1.6.1
	gopkg.in/alecthomas/kingpin.v2 v2.2.6
	gopkg.in/yaml.v3 v3.0.0-20200313102051-9f266ea9e77c
)
